*** Life<ConwayCell> 4x14 ***

Generation = 0, Population = 24.
..*.*.*..*.***
*.*...*..*.*.*
.*..*.*.*..**.
..*...*..***..

Generation = 77, Population = 0.
..............
..............
..............
..............

*** Life<ConwayCell> 6x14 ***

Generation = 0, Population = 14.
...........*.*
....*..*..*...
....****......
............*.
......*..*....
..........*..*

Generation = 193, Population = 0.
..............
..............
..............
..............
..............
..............

*** Life<ConwayCell> 1x175 ***

Generation = 0, Population = 85.
****.**.*.*....*.***.*.....**...**..*...***.***.**.****.**.*.*.*.*****.*.*.**..*...........**..**.*.**...*.....*...*...**....*..*****..**.*.**..*.*...**.*****.**.***..*...*.*.

Generation = 179, Population = 0.
...............................................................................................................................................................................

*** Life<ConwayCell> 10x19 ***

Generation = 0, Population = 80.
**.*...*.*.*...**..
....*.***..........
...**.....***.***..
.*.*.*.*....*..*..*
...*..*..*****..**.
**.*....*...**..***
**.***....*.*...*.*
*..**.***..*.......
.*..*.****.**.*..**
*.*..*.*...*...*.**

Generation = 86, Population = 14.
...................
...................
...............***.
..............**.*.
.............****..
...........*.......
.........**........
...........*.......
...................
...................

*** Life<ConwayCell> 7x24 ***

Generation = 0, Population = 97.
.*...**..*...*.....***.*
**.*..*.***.*.*.****...*
.**.**.*.*..**..*.*.....
*.*.*.*.**..******.*****
..********.***......***.
***************.....*.*.
..**..****.**.**.****.**

Generation = 173, Population = 7.
......................*.
.....................*.*
....................*..*
.....................**.
........................
........................
........................

*** Life<ConwayCell> 3x11 ***

Generation = 0, Population = 1.
...........
...........
.......*...

Generation = 11, Population = 0.
...........
...........
...........

*** Life<ConwayCell> 6x121 ***

Generation = 0, Population = 162.
..**.*..***..**..*....*..*.***.*.....*.**..*.*.*..**.*..........*..**.*..**..............*....*....**..............*....*
.*..............*....*...**....**.....*.*...........*..*..........*.*...........*....*.............*..*.*.**..*...*......
...*........**...*.*....*...***.....*............***..*.**.............*......*...**....*..................**.*....*.....
.....*.*...*........*...*...*..*...*......*........*......*..*.******......*............*......*.*......**......*....*...
.*..*........**..***..**.*....**..........**..****..***.*......*.*.............*.*...*.........*..*.......*..............
............*...*..*.....**..*..*...........*.........*...*....*.....**......*.*..*.....**..*........*........*...**.....

Generation = 90, Population = 34.
...*............**...................**............................................................**....................
..*.*...........**...................**...............**...................*.......................**....................
..*.*...........................................*.....**..................*.*............................................
...*............................................*.........................*.*................................*...........
................................................*..........................*.................................*...........
.............................................................................................................*...........

*** Life<ConwayCell> 3x179 ***

Generation = 0, Population = 168.
......*.......**.**.*.*....*.*.*.*....*.****.*.*....*.*.*.......*.......***.....*....*.****.**..**.**....*.*.*...*.***....*.**.....*....*.....*...****....*..*...*.*...**.*.....*..
....*.*...*....*....*..*.....*..**.....*.*...*....*....*....***......*...**.*....*...*...***.*...*.**....*.....**...*...*....**..**.*...........*...*...*.***.....**..*.***..*.*.*.
...*...*.*.*.*...*.*..**.*....*......*.*..*..*.........*.*......**...***.***..**.....*.......*..*...*........*........**...**........**.*.*...*..*..*.....*.**.*...***.*...........

Generation = 169, Population = 34.
.....**................................**...................................................***.....................**.......**....................................................
....*..*...............................**..............................**..................*..*.....................**.......**............................**......................
.....**................................................................**..................***.............................................................**......................

*** Life<ConwayCell> 9x186 ***

Generation = 0, Population = 193.
.........*....*.......*..............*..**.........*........................*.*..*.......*.........*...*..........**.........*............*.........*........*................*...........
..**.............*...*...*.....*.....*......*.......*...*.............*.........*......*.............*...................................................***.....*.....*.......*..*....*..
.....*..............*.......*...*.......*...*..*...........*.....**....*..................*.*.....................*....*...................*.............*.......*......................*.
........*.*..........*.......*...*...................*...*...........*...*.........*...................*........*.......*....*...........*.*....*........*.......*..........*.*.*.**..*...
..*..........*....*..............................*......*..................................*.*...*.....................*...............**.....*.....**..............*.....................
*..............*.*..............*.......*......*...................*............*........*..*......................*...............*.............................*.......***..*...........
.*..*...*..............*.*.....*..*.....*..............*...*.........*...*....*.............**...............*...........*...*....*....*....*.......*.........*......................*....
.....*.*...............*......*...........*...............**................*.....**...*....*............*............*.**............**......*....*.................*..........*...*.*...
.......**....*.......*..*...................*..................**...*..*.......*....*....*.........*.....*......*...*..*...........*.........*.....*.....*.....*...*......*..*.........*..

Generation = 62, Population = 49.
..........................................................................................................**.............................................**...............................
....................**...................................................................................*..*...........................................*..*.....*........................
....................**...................................................................***............***.**..........................................*.*......*........................
.........................................................................................................**.**...........................................*.......*........*...............
..........................................................................................................**.*...........................................................*.*..............
...........................................................................................................**............................................................*.*..............
..........................................................**..............................................................................................................*..........**...
..........................................................**.........................................................................................................................**...
..........................................................................................................................................................................................

*** Life<ConwayCell> 5x57 ***

Generation = 0, Population = 113.
*....***..*....*.**.*.**..*.....*.*..**..*.**.....***....
..***.......**...*...*....*.....****.**.*.**.*..*..*.*.*.
.*.*...***........*...**.**.**...........**.*.****..*.**.
.*.**...*..*..**..*..**.***..*..*...*.*..*.*...***....**.
..*..**.*.....**..***..*...****..**.*..*......*...***..*.

Generation = 90, Population = 13.
.........................................................
....................**............................**.....
...................*..*..........................*..*....
....................**............................*.*....
...................................................*.....

*** Life<ConwayCell> 1x7 ***

Generation = 0, Population = 2.
.....**

Generation = 27, Population = 0.
.......

*** Life<ConwayCell> 5x45 ***

Generation = 0, Population = 119.
.**..*.*.**.....*.**.**....*****.*...*****...
..**......*...*****..*.**.**.**.*****..***.*.
...*..*..**.**.*..*****.*.**.**..**..***.*..*
**.**.***.*..**.*.*...*.*.*****..*....****...
*.*.*.*.**.*.*.*....**.***..*..**.*******..*.

Generation = 72, Population = 21.
...............*.............................
.......**.....*.*...**................**.....
......*..*....**...*.*................**.....
......*.*...........*........................
.......*.....................................

*** Life<ConwayCell> 9x118 ***

Generation = 0, Population = 178.
...*....**..**..*.............*.*......**..........................*..........*...*..*...**.*.......*.................
................*....*........*...*................*...*.**....*...*.*.*..........*....*........*....*...........*..*.
...*.*.*..*..*.........*...*.....*...................*....*................*.*.........*............*.*.............*.
...*..*....*.......**......*.....*........*...........................*..**.......*.*...*..**......*.......*.........*
.*..*.......*.*.....*........*....................*...........**.*.....*.......**.*...**.....*.*.....*..*.*..*.......*
*....................*.....*....**...........*...*...*.....*....*..*..........*.*.*....*.....***...**.........*...**..
............*.*.......**...*.....*......................*.............*.....*.....*.**.*..*...*.*.............*.......
*....*.*.*...............*..*......*........*.*.................*...*..******..*.***....*..*.*.....*.*....*....*...*..
.*......*......***............**.....*........*.......*................*...........*..................*.*...*.........

Generation = 87, Population = 50.
.......................................................................................................*..............
..................................*......................**............................................*..............
..................................*......................**............................................*..............
..................................*.................................................***...............................
......................*........................................**...............................*.............*.......
.....................*.*.......................................**..............................*.*...........*.*......
.....................*.*.....................*.............................**..................*.*...........*.*......
...............**.....*......................*.......................**....**...................*.............*.......
...............**............................*.......................**...............................................

*** Life<ConwayCell> 6x39 ***

Generation = 0, Population = 54.
*..*....**........**...............*...
...*...*......*.*...*.**..*......*.....
*..*....*....*....*..*...............**
..*.**............*..*.......*.*....*.*
...**...*..*...........*.*...*....*****
***..**.....*....*......*.............*

Generation = 72, Population = 8.
.......................................
.**....................................
*..*...................................
*..*...................................
.**....................................
.......................................

*** Life<ConwayCell> 10x94 ***

Generation = 0, Population = 178.
.*.....**....**.*......*.**.........**...*....**..*.*.......*............**.....*...*.........
...............*...*...*.....*..***.*........*....*..**.......*..*............**.......*.*..*.
.**......*......*..***.*..........*...*..............***....*.........................*.*..**.
*...*.*.........*.....*.*........**..........*..*.*.....*.....*..*.*..**.....*....*.....*..*..
.**.................*.........***.............*.*.**......**...*...*..............*......*....
*.....*................**..............*.*......*......*........*.......................*....*
*..................**..*...................*........*....*....*.*...*....*.*...............*..
..*..**............*...*.................****..*.*.....*.*.........*..........*..**...........
**.*.**.......*..*...*....*........**.*.*....*............*.**..*..........*....*.*...*..**..*
..*...*.*.........*.......*...**..................*......**.*....**...........*...*..*..*.....

Generation = 98, Population = 79.
...................................***...***.............*....................................
....**............................*.*.*.*.*.*............*....................................
....**...........................***.**.**.***...........*..................................**
......................**.........*..*.*.*.*..*..............................................**
.........***.*.......*..*...........**...**.....................................*.............
........*...*.**......**...........**.....**...................................*.*............
........**....*................................................................*.*............
........*.****........................................**........................*.............
......................................................**......................................
..............................................................................................

*** Life<ConwayCell> 6x87 ***

Generation = 0, Population = 40.
.........*........*..........................*..*.*....*..............................*
.......................................*............................*..................
.**.........*...............................*....*......................*.............*
.........*.................................**..............................*....*....*.
...*.....*..*.**..............................*............*..*....*..*........*.......
...................*......*......*.........*.......*....................*..........*...

Generation = 73, Population = 44.
................................**.....................**..............................
................................**..**...**...**...**..**..............................
...............................*..*........*.*........*..*.............................
................................**.....*.*.*.*.*.*.....**..............................
.................................*.....*...*.*...*.....*...............................
........................................***...***......................................

*** Life<ConwayCell> 7x41 ***

Generation = 0, Population = 140.
.**..**..*.*.*...**.*****..**.***..**..*.
***.*...*....*..*..***..****.*.*..*.**.**
.**..*.**....*.*.***...**.....**.**...**.
*.*.**.*****......*.*.**.**.*..*.*.***..*
.*....*.*****..*..*.......*..*****...*...
.*****..*.*..*.*.******.....*...**..*...*
.....*.*.**.*..*.*...**..***.****..***.**

Generation = 188, Population = 12.
.........................................
.........................................
......*..................................
.....*.*..........................***....
......**.........**......................
.................**......................
.........................................

*** Life<ConwayCell> 4x183 ***

Generation = 0, Population = 115.
.................*..............*.....*..**.........*........*...........*....*.....*...*..**........**...............*.*...*....*........................*..*..*.................*.*..
.....*.*.....*...*.*...*......*....*.*.*..........*...*..*...................**.......*..........*....*..*......*.*.................*....**......*.*...........*.*...............*...*.
........*..*.....*........*.*.*....*...........*......*......*..............****..*.........*....*.......*....*........*...*....*.....*..........*.*.*........*..*.................**.*
....*..*.*...............***.....*.....*....*............*..*.*..................**.....*...**...*....*...*......*..............**.*....*.*.........*.............*...........*......*.

Generation = 132, Population = 41.
................................................................................*....................**................................................................................
.......**......**.**...........................................................*.*...............*...**.............................................................................**.
......*..*.....*...*............................................................*................*..............................**................................**...............*..*
.......**.......***..............................................................................*..............................**................................**...............***.

*** Life<ConwayCell> 1x133 ***

Generation = 0, Population = 69.
....***.**..***...**....*****..****...*...*..***.*.****.*..*******..*....*....*.*.**.....**..*..*****.**.*****.***...***.*..*...*..**

Generation = 88, Population = 0.
.....................................................................................................................................

*** Life<ConwayCell> 2x173 ***

Generation = 0, Population = 149.
****..*..**.*.*.**..***..*..**.*.*.***.*..*.*........*.**...**.....**.**.....*..**..**.......*..*..*.*******...*..*...***..*..**.*.**.*******...*.*..****.*..*.*..*..*.....**
...**.*....*...*.*...***.**.......*..*.....*..*..*..*..****.**..*..**.*****.**...*....*....*.....**..***.****...***...........*.**.**..****.*..*.*..*.**....*.*.*..*....*...*

Generation = 40, Population = 42.
..........**..............................................**.......**.......**..**...............**.**........................**.*..............**.........................**
..........**..............................................**.......**.......**..**...............**.**........................*.**..............**.........................**

*** Life<ConwayCell> 7x118 ***

Generation = 0, Population = 181.
........*....****..**...***....................*.*.*......*...*...**....**....**..*.........*..*..*......*............
.........*.*...*.......**.*....**...*..**.......**.............*.**.....*..*...*..*......**....***.....*.**.....*.....
..*.*.*..**.**.......*....*.*...............*....*.*..*.....*.*.....*......*..*.*...**...**................*.........*
..*........*.*.*....*.*.............*......*...*.......*.........*....*.*..*.*.*...*........*.*..*...*.*..*...*......*
*.....*...............*.*.......*...**.....***.....*.*.....*.....*..*..*...*......*...*.............*........*.*......
*....**....*........*.*.**...*.*...*..***.......*....*.*.................*......*......*..*..**........**.............
.*.*.**........*.....*.*.*.*..*.........*.*...*..*........*......*....*...*....*....*.......*.*...*...*...........****

Generation = 41, Population = 89.
................................**............................**...................................**...*.............
....**........**......*........*.**...........................**......***...***.............**...*.**.................
...*..*......*..*.....*.......**.*.............................................................*.......*..............
....**........**......*........**...................................*....*.*....*....**.......*...**....*.............
........**..........................................................*....*.*....*....**........**...*.................
........**...................................**.....................*....*.*....*................*.*...............**.
.............................................**.......................***...***....................*...............**.
